Regression
…
# model workflow
lm.workflow <- workflow() %>%
    add_recipe(lm.recipe) %>%
    add_model(ols.spec)

# fit the model

full_model <- fit(lm.workflow, data = NHL.regression2) 
full_model %>% tidy()

## # A tibble: 28 x 5
##    term        estimate std.error statistic  p.value
##    <chr>          <dbl>     <dbl>     <dbl>    <dbl>
##  1 (Intercept) 2229789.   228061.     9.78  9.99e-21
##  2 Ht          -132971.   110517.    -1.20  2.29e- 1
##  3 Wt           211975.   106953.     1.98  4.80e- 2
##  4 DftRd       -333215.    78391.    -4.25  2.56e- 5
##  5 G            528495.   128196.     4.12  4.41e- 5
##  6 A1           595024.   129448.     4.60  5.48e- 6
##  7 DftYr       -868765.    80414.   -10.8   1.59e-24
##  8 dzFOL        -27986.    98176.    -0.285 7.76e- 1
##  9 Country       24328.    72898.     0.334 7.39e- 1
## 10 SA           248604.   118230.     2.10  3.60e- 2
## # ... with 18 more rows
…
## ! Fold5: preprocessor 1/1, model 1/1 (predictions): There are new levels in a fac...

# Select best model & fit
best_penalty <- tune_output %>% 
  select_by_one_std_err(metric = 'mae', desc(penalty))

ls_mod <-  best_penalty  %>% 
  finalize_workflow(lasso_wf_tune,.) %>%
  fit(data = NHL.regression2) 
    
# Note which variable is the "least" important    
ls_mod %>% tidy()

## # A tibble: 28 x 3
##    term        estimate penalty
##    <chr>          <dbl>   <dbl>
##  1 (Intercept) 2192813. 174333.
##  2 Ht                0  174333.
##  3 Wt           208063. 174333.
##  4 DftRd             0  174333.
##  5 G            350540. 174333.
##  6 A1           900139. 174333.
##  7 DftYr             0  174333.
##  8 dzFOL             0  174333.
##  9 Country           0  174333.
## 10 SA                0  174333.
## # ... with 18 more rows

Credit_final_wk <- finalize_workflow(lasso_wf_tune, best_penalty) # incorporates penalty value to workflow
 
Credit_final_fit <- fit(Credit_final_wk, data = NHL.regression2)

tidy(Credit_final_fit)

## # A tibble: 28 x 3
##    term        estimate penalty
##    <chr>          <dbl>   <dbl>
##  1 (Intercept) 2192813. 174333.
##  2 Ht                0  174333.
##  3 Wt           208063. 174333.
##  4 DftRd             0  174333.
##  5 G            350540. 174333.
##  6 A1           900139. 174333.
##  7 DftYr             0  174333.
##  8 dzFOL             0  174333.
##  9 Country           0  174333.
## 10 SA                0  174333.
## # ... with 18 more rows
…
